<?xml version="1.0" encoding="utf-8"?>
<!-- Generator: Adobe Illustrator 21.0.0, SVG Export Plug-In . SVG Version: 6.00 Build 0)  -->
<svg version="1.1" id="Layer_1" xmlns="http://www.w3.org/2000/svg" xmlns:xlink="http://www.w3.org/1999/xlink" x="0px" y="0px"
	 viewBox="0 0 20 25.3" style="enable-background:new 0 0 20 25.3;" xml:space="preserve">
<style type="text/css">
	.st0{fill:none;}
	.st1{fill:#FFFFFF;}
</style>
<g>
	<path class="st0" d="M10,4C6.9,4,4.3,6.5,4.3,9.7s2.5,5.7,5.7,5.7s5.7-2.5,5.7-5.7S13.1,4,10,4z M12.6,6c-0.3,0.4-0.4,0.7-0.5,0.7
		h-1.3c0.2,0.2,0.3,0.5,0.4,0.8h1.4c0,0,0,0,0,0c-0.3,0.5-0.5,0.7-0.5,0.7h-0.9c0,0.2-0.1,0.5-0.3,0.8c-0.3,0.3-0.5,0.6-0.8,0.7
		C9.7,9.8,9.2,10,8.8,10v0c0,0,1,1.2,2.9,3.4h-1.3c-1.9-2.2-2.8-3.3-2.8-3.3V9.4l0,0c0.2,0,0.4,0,0.6,0c1,0,1.7-0.3,2-1
		c0-0.1,0.1-0.2,0.1-0.3H7.4c0,0,0,0,0,0c0.3-0.5,0.5-0.7,0.5-0.7h2.3v0C10,7.1,9.7,6.9,9.4,6.8C9.1,6.7,8.9,6.7,8.6,6.7H7.4v0
		C7.7,6.2,7.8,6,7.9,6L12.6,6L12.6,6z"/>
	<path class="st0" d="M18.7,1.3H1.3V24h17.3V1.3z M16,22.7H4c0,0,0,0,0,0c-0.4,0-0.7-0.3-0.7-0.6c0-0.4,0.3-0.7,0.6-0.7
		c0,0,0,0,0.1,0h12c0,0,0,0,0,0c0.4,0,0.7,0.3,0.7,0.7C16.7,22.4,16.4,22.7,16,22.7z M16,20H4c-0.4,0-0.7-0.3-0.7-0.6
		c0-0.4,0.3-0.7,0.6-0.7v0c0,0,0,0,0.1,0h12c0,0,0,0,0,0c0.4,0,0.7,0.3,0.7,0.7C16.7,19.7,16.4,20,16,20z M10,16.7c-3.9,0-7-3.1-7-7
		s3.1-7,7-7s7,3.1,7,7S13.9,16.7,10,16.7z"/>
	<path class="st1" d="M10,2.7c-3.9,0-7,3.1-7,7s3.1,7,7,7s7-3.1,7-7S13.9,2.7,10,2.7z M10,15.3c-3.1,0-5.7-2.5-5.7-5.7S6.9,4,10,4
		s5.7,2.5,5.7,5.7S13.1,15.3,10,15.3z"/>
	<path class="st1" d="M16,18.7C16,18.7,16,18.7,16,18.7H4c0,0,0,0-0.1,0v0c-0.4,0-0.7,0.3-0.6,0.7C3.3,19.7,3.6,20,4,20h12
		c0.4,0,0.7-0.3,0.7-0.7C16.7,19,16.4,18.7,16,18.7z"/>
	<path class="st1" d="M16,21.3C16,21.3,16,21.3,16,21.3H4c0,0,0,0-0.1,0c-0.4,0-0.7,0.3-0.6,0.7c0,0.4,0.3,0.7,0.7,0.6c0,0,0,0,0,0
		h12c0.4,0,0.7-0.3,0.7-0.7C16.7,21.6,16.4,21.3,16,21.3z"/>
	<path class="st1" d="M7.4,6.6L7.4,6.6l1.3,0c0.2,0,0.5,0,0.7,0.1c0.4,0.1,0.6,0.3,0.8,0.6v0H7.9c0,0-0.2,0.2-0.5,0.7c0,0,0,0,0,0
		h2.8c0,0.1,0,0.2-0.1,0.3c-0.3,0.7-0.9,1-2,1c-0.2,0-0.4,0-0.6,0l0,0v0.7c0,0,0.9,1.1,2.8,3.3h1.3C9.8,11.1,8.8,10,8.8,10v0
		c0.4,0,0.9-0.1,1.3-0.3c0.2-0.1,0.5-0.3,0.8-0.7c0.2-0.3,0.3-0.6,0.3-0.8h0.9c0,0,0.2-0.2,0.5-0.7c0,0,0,0,0,0h-1.4
		c-0.1-0.3-0.2-0.5-0.4-0.8h1.3c0,0,0.2-0.3,0.5-0.7v0H7.9C7.8,6,7.7,6.2,7.4,6.6z"/>
	<path class="st1" d="M0.7,25.3h2.7v0h0.1h1.3v0h14.7c0.3,0,0.6-0.2,0.6-0.5V0.7h0v0C20,0.3,19.7,0,19.3,0H0.7c0,0,0,0-0.1,0v0
		C0.3,0,0,0.3,0,0.7v24C0,25,0.3,25.3,0.7,25.3z M1.3,1.3h17.3V24H1.3V1.3z"/>
</g>
</svg>
