<?xml version="1.0" encoding="utf-8"?>
<!-- Generator: Adobe Illustrator 18.0.0, SVG Export Plug-In . SVG Version: 6.00 Build 0)  -->
<!DOCTYPE svg PUBLIC "-//W3C//DTD SVG 1.1//EN" "http://www.w3.org/Graphics/SVG/1.1/DTD/svg11.dtd">
<svg version="1.1" id="Layer_1" xmlns="http://www.w3.org/2000/svg" xmlns:xlink="http://www.w3.org/1999/xlink" x="0px" y="0px"
	 viewBox="270 360 72 72" enable-background="new 270 360 72 72" xml:space="preserve">
<g>
	<rect x="270" y="360" fill="#ADADAD" width="72" height="72"/>
	<g>
		<path fill="#FFFFFF" d="M297.9,396.5h16c6.3,0,11.5,5,11.5,11.3v11.3h-38.8v-11.3C286.6,401.5,291.8,396.5,297.9,396.5z
			 M313.9,398.9h-16c-4.8,0-8.9,4.1-8.9,8.9v8.9h34v-8.9C323,403,318.9,398.9,313.9,398.9z"/>
		<path fill="#FFFFFF" d="M305.9,372.9c6.5,0,11.7,5.2,11.7,11.5c0,6.5-5.2,11.7-11.7,11.7c-6.3,0-11.5-5.2-11.5-11.7
			C294.4,378.1,299.6,372.9,305.9,372.9z M305.9,375.3c-5,0-9.1,4.1-9.1,9.1c0,5.2,4.1,9.3,9.1,9.3c5.2,0,9.3-4.1,9.3-9.3
			C315.2,379.4,311.1,375.3,305.9,375.3z"/>
	</g>
</g>
</svg>
