{
  "prepare_queue": {
    "installed": [],
    "uninstalled": []
  },
  "config_munge": {
    "files": {}
  },
  "installed_plugins": {
    "com-badrit-base64": {
      "PACKAGE_NAME": "com.fg.health"
    },
    "cordova-android-support-gradle-release": {
      "ANDROID_SUPPORT_VERSION": "27.+",
      "PACKAGE_NAME": "com.fg.health"
    },
    "cordova-plugin-actionsheet": {
      "PACKAGE_NAME": "com.fg.health"
    },
    "cordova-plugin-allow-backup": {
      "BACKUP": "false",
      "PACKAGE_NAME": "com.fg.health"
    },
    "cordova-plugin-android-permissions": {
      "PACKAGE_NAME": "com.fg.health"
    },
    "cordova-plugin-camera": {
      "PACKAGE_NAME": "com.fg.health"
    },
    "cordova-plugin-datepicker": {
      "PACKAGE_NAME": "com.fg.health"
    },
    "cordova-plugin-device": {
      "PACKAGE_NAME": "com.fg.health"
    },
    "cordova-plugin-document-viewer": {
      "PACKAGE_NAME": "com.fg.health"
    },
    "cordova-plugin-file": {
      "PACKAGE_NAME": "com.fg.health"
    },
    "cordova-plugin-file-transfer": {
      "PACKAGE_NAME": "com.fg.health"
    },
    "cordova-plugin-inappbrowser": {
      "PACKAGE_NAME": "com.fg.health"
    },
    "cordova-plugin-whitelist": {
      "PACKAGE_NAME": "com.fg.health"
    },
    "cordova-plugin-screen-orientation": {
      "PACKAGE_NAME": "com.fg.health"
    },
    "cordova-plugin-market": {
      "PACKAGE_NAME": "com.fg.health"
    },
    "cordova-plugin-analytics": {
      "PACKAGE_NAME": "com.fg.health"
    }
  },
  "dependent_plugins": {
    "com.googlemaps.ios": {
      "PACKAGE_NAME": "com.fg.health"
    },
    "cordova-plugin-add-swift-support": {
      "PACKAGE_NAME": "com.fg.health"
    },
    "es6-promise-plugin": {
      "PACKAGE_NAME": "com.fg.health"
    },
    "cordova-play-services-version-adapter": {
      "PACKAGE_NAME": "com.fg.health"
    },
    "cordova-annotated-plugin-android": {
      "PACKAGE_NAME": "com.fg.health"
    }
  }
}