<?xml version="1.0" encoding="utf-8"?>
<!-- Generator: Adobe Illustrator 21.0.0, SVG Export Plug-In . SVG Version: 6.00 Build 0)  -->
<svg version="1.1" id="Layer_1" xmlns="http://www.w3.org/2000/svg" xmlns:xlink="http://www.w3.org/1999/xlink" x="0px" y="0px"
	 viewBox="0 0 20 20.5" style="enable-background:new 0 0 20 20.5;" xml:space="preserve">
<style type="text/css">
	.st0{clip-path:url(#SVGID_2_);fill:#8D1831;}
	.st1{clip-path:url(#SVGID_2_);fill:#EF9173;}
</style>
<g>
	<defs>
		<rect id="SVGID_1_" width="20" height="20.5"/>
	</defs>
	<clipPath id="SVGID_2_">
		<use xlink:href="#SVGID_1_"  style="overflow:visible;"/>
	</clipPath>
	<path class="st0" d="M0.6,5.9h1.9l2.2,9c0.1,0.3,0.3,0.4,0.6,0.4h11.8c0.3,0,0.5-0.2,0.6-0.4L20,5.4c0.1-0.3-0.1-0.6-0.4-0.7
		c-0.3-0.1-0.6,0.1-0.7,0.4l0,0.1l-2.2,8.8H5.8L3.6,5.3l0-0.1C3.4,4.9,3.2,4.7,2.9,4.7H0.6C0.3,4.7,0,5,0,5.3C0,5.6,0.3,5.9,0.6,5.9
		"/>
	<path class="st0" d="M8.8,18.1c0-1.3-1.1-2.4-2.4-2.4s-2.4,1.1-2.4,2.4c0,1.3,1.1,2.4,2.4,2.4S8.8,19.4,8.8,18.1 M5.3,18.1
		c0-0.7,0.5-1.2,1.2-1.2s1.2,0.5,1.2,1.2s-0.5,1.2-1.2,1.2S5.3,18.8,5.3,18.1"/>
	<path class="st0" d="M15.9,15.8c-1.3,0-2.4,1.1-2.4,2.4c0,1.3,1.1,2.4,2.4,2.4s2.4-1.1,2.4-2.4C18.3,16.9,17.2,15.8,15.9,15.8
		 M15.9,19.3c-0.7,0-1.2-0.5-1.2-1.2s0.5-1.2,1.2-1.2c0.7,0,1.2,0.5,1.2,1.2S16.6,19.3,15.9,19.3"/>
	<path class="st1" d="M10.8,9.3c0.1,0.1,0.3,0.2,0.4,0.2c0.2,0,0.3,0,0.4-0.2l3.5-3.5c0.1-0.1,0.2-0.3,0.2-0.4c0-0.2,0-0.3-0.2-0.4
		c-0.2-0.2-0.6-0.2-0.8,0l-0.4,0.4l-2.1,2.1V5.3V0.6c0-0.3-0.3-0.6-0.6-0.6s-0.6,0.3-0.6,0.6v4.7v2.1L8.5,5.3L8.1,4.9
		c-0.2-0.2-0.6-0.2-0.8,0C7.1,5,7.1,5.1,7.1,5.3c0,0.2,0,0.3,0.2,0.4L10.8,9.3z"/>
</g>
</svg>
