<?xml version="1.0" encoding="utf-8"?>
<!-- Generator: Adobe Illustrator 21.0.0, SVG Export Plug-In . SVG Version: 6.00 Build 0)  -->
<svg version="1.1" id="Layer_1" xmlns="http://www.w3.org/2000/svg" xmlns:xlink="http://www.w3.org/1999/xlink" x="0px" y="0px"
	 viewBox="0 0 20 14.8" style="enable-background:new 0 0 20 14.8;" xml:space="preserve">
<style type="text/css">
	.st0{clip-path:url(#SVGID_2_);fill:#FFFFFF;}
</style>
<g>
	<g>
		<defs>
			<rect id="SVGID_1_" width="20" height="14.8"/>
		</defs>
		<clipPath id="SVGID_2_">
			<use xlink:href="#SVGID_1_"  style="overflow:visible;"/>
		</clipPath>
		<path class="st0" d="M19,14.8H1c-0.6,0-1-0.4-1-1.1v-10c0-0.7,0.4-1.1,1-1.1h5.3L7,0.7c0,0,0,0,0,0C7.2,0.1,7.3,0,7.9,0h4.3
			c0.6,0,0.7,0.1,0.9,0.7c0,0,0,0,0,0l0.7,1.9H19c0.6,0,1,0.4,1,1.1v10C20,14.4,19.6,14.8,19,14.8 M1,3.4c-0.1,0-0.2,0-0.2,0.4v10
			c0,0.4,0.2,0.4,0.2,0.4H19c0.1,0,0.2,0,0.2-0.4v-10c0-0.4-0.2-0.4-0.2-0.4h-5.5c-0.2,0-0.3-0.1-0.3-0.3l-0.7-2.2
			c0-0.1-0.1-0.2-0.1-0.2c0,0-0.1,0-0.2,0H7.9c-0.1,0-0.1,0-0.2,0c0,0-0.1,0.1-0.1,0.2L6.9,3.1C6.9,3.3,6.7,3.4,6.6,3.4H1z"/>
		<path class="st0" d="M10,13.6c-2.6,0-4.7-2.1-4.7-4.8C5.3,6.1,7.4,4,10,4c2.6,0,4.7,2.1,4.7,4.8C14.7,11.4,12.6,13.6,10,13.6
			 M10,4.7c-2.2,0-4,1.8-4,4c0,2.2,1.8,4,4,4s4-1.8,4-4C14,6.6,12.2,4.7,10,4.7"/>
		<path class="st0" d="M10,11.5c-1.5,0-2.7-1.2-2.7-2.7S8.5,6.1,10,6.1c1.5,0,2.7,1.2,2.7,2.7S11.5,11.5,10,11.5 M10,6.8
			c-1.1,0-2,0.9-2,2c0,1.1,0.9,2,2,2s2-0.9,2-2C12,7.7,11.1,6.8,10,6.8"/>
	</g>
</g>
</svg>
