<?xml version="1.0" encoding="utf-8"?>
<!-- Generator: Adobe Illustrator 21.0.0, SVG Export Plug-In . SVG Version: 6.00 Build 0)  -->
<svg version="1.1" id="Layer_1" xmlns="http://www.w3.org/2000/svg" xmlns:xlink="http://www.w3.org/1999/xlink" x="0px" y="0px"
	 viewBox="0 0 20 14.9" style="enable-background:new 0 0 20 14.9;" xml:space="preserve">
<style type="text/css">
	.st0{fill:#8D1831;}
	.st1{fill:#EF9173;}
</style>
<g>
	<path class="st0" d="M8,6h1.5v1.5C9.5,7.8,9.7,8,10,8s0.5-0.2,0.5-0.5V6H12c0.3,0,0.5-0.2,0.5-0.5c0-0.3-0.2-0.5-0.5-0.5h-1.5V3.5
		c0-0.3-0.2-0.5-0.5-0.5S9.5,3.3,9.5,3.5v1.5H8c-0.3,0-0.5,0.2-0.5,0.5C7.5,5.8,7.8,6,8,6z"/>
	<path class="st0" d="M0,4.6v10.1c0,0.2,0.1,0.3,0.3,0.3h6.5h6.5h6.5c0.2,0,0.3-0.1,0.3-0.3V4.6c0-0.2-0.1-0.3-0.3-0.3h-6.2v-4
		c0-0.2-0.1-0.3-0.3-0.3H6.8C6.6,0,6.5,0.1,6.5,0.3v4H0.3C0.1,4.3,0,4.4,0,4.6z M8.7,14.4V12h2.7v2.4H8.7z M19.5,4.9v9.5h-5.9V4.9
		H19.5z M7,0.6H13v13.9h-1.1v-2.7c0-0.2-0.1-0.3-0.3-0.3H8.4c-0.2,0-0.3,0.1-0.3,0.3v2.7H7V0.6z M0.6,4.9h5.9v9.5H0.6V4.9z"/>
	<path class="st1" d="M2,6.2c-0.2,0-0.3,0.1-0.3,0.3v1.3C1.7,8,1.8,8.1,2,8.1S2.2,8,2.2,7.8V6.5C2.2,6.4,2.1,6.2,2,6.2z"/>
	<path class="st1" d="M3.5,6.2c-0.2,0-0.3,0.1-0.3,0.3v1.3c0,0.2,0.1,0.3,0.3,0.3c0.2,0,0.3-0.1,0.3-0.3V6.5
		C3.8,6.4,3.7,6.2,3.5,6.2z"/>
	<path class="st1" d="M5.1,6.2c-0.2,0-0.3,0.1-0.3,0.3v1.3c0,0.2,0.1,0.3,0.3,0.3S5.4,8,5.4,7.8V6.5C5.4,6.4,5.2,6.2,5.1,6.2z"/>
	<path class="st1" d="M2,8.8c-0.2,0-0.3,0.1-0.3,0.3v1.3c0,0.2,0.1,0.3,0.3,0.3s0.3-0.1,0.3-0.3V9.1C2.2,8.9,2.1,8.8,2,8.8z"/>
	<path class="st1" d="M3.5,8.8c-0.2,0-0.3,0.1-0.3,0.3v1.3c0,0.2,0.1,0.3,0.3,0.3c0.2,0,0.3-0.1,0.3-0.3V9.1
		C3.8,8.9,3.7,8.8,3.5,8.8z"/>
	<path class="st1" d="M5.1,8.8c-0.2,0-0.3,0.1-0.3,0.3v1.3c0,0.2,0.1,0.3,0.3,0.3s0.3-0.1,0.3-0.3V9.1C5.4,8.9,5.2,8.8,5.1,8.8z"/>
	<path class="st1" d="M8.5,10.7c0.2,0,0.3-0.1,0.3-0.3V9.1c0-0.2-0.1-0.3-0.3-0.3c-0.2,0-0.3,0.1-0.3,0.3v1.3
		C8.2,10.6,8.3,10.7,8.5,10.7z"/>
	<path class="st1" d="M10,8.8c-0.2,0-0.3,0.1-0.3,0.3v1.3c0,0.2,0.1,0.3,0.3,0.3c0.2,0,0.3-0.1,0.3-0.3V9.1
		C10.3,8.9,10.2,8.8,10,8.8z"/>
	<path class="st1" d="M11.6,8.8c-0.2,0-0.3,0.1-0.3,0.3v1.3c0,0.2,0.1,0.3,0.3,0.3c0.2,0,0.3-0.1,0.3-0.3V9.1
		C11.8,8.9,11.7,8.8,11.6,8.8z"/>
	<path class="st1" d="M2,11.4c-0.2,0-0.3,0.1-0.3,0.3V13c0,0.2,0.1,0.3,0.3,0.3s0.3-0.1,0.3-0.3v-1.3C2.2,11.5,2.1,11.4,2,11.4z"/>
	<path class="st1" d="M3.5,11.4c-0.2,0-0.3,0.1-0.3,0.3V13c0,0.2,0.1,0.3,0.3,0.3c0.2,0,0.3-0.1,0.3-0.3v-1.3
		C3.8,11.5,3.7,11.4,3.5,11.4z"/>
	<path class="st1" d="M5.1,11.4c-0.2,0-0.3,0.1-0.3,0.3V13c0,0.2,0.1,0.3,0.3,0.3s0.3-0.1,0.3-0.3v-1.3C5.4,11.5,5.2,11.4,5.1,11.4z
		"/>
	<path class="st1" d="M14.9,8.1c0.2,0,0.3-0.1,0.3-0.3V6.5c0-0.2-0.1-0.3-0.3-0.3c-0.2,0-0.3,0.1-0.3,0.3v1.3
		C14.7,8,14.8,8.1,14.9,8.1z"/>
	<path class="st1" d="M16.5,8.1c0.2,0,0.3-0.1,0.3-0.3V6.5c0-0.2-0.1-0.3-0.3-0.3c-0.2,0-0.3,0.1-0.3,0.3v1.3
		C16.2,8,16.3,8.1,16.5,8.1z"/>
	<path class="st1" d="M18.1,8.1c0.2,0,0.3-0.1,0.3-0.3V6.5c0-0.2-0.1-0.3-0.3-0.3c-0.2,0-0.3,0.1-0.3,0.3v1.3
		C17.8,8,17.9,8.1,18.1,8.1z"/>
	<path class="st1" d="M14.9,10.7c0.2,0,0.3-0.1,0.3-0.3V9.1c0-0.2-0.1-0.3-0.3-0.3c-0.2,0-0.3,0.1-0.3,0.3v1.3
		C14.7,10.6,14.8,10.7,14.9,10.7z"/>
	<path class="st1" d="M16.5,10.7c0.2,0,0.3-0.1,0.3-0.3V9.1c0-0.2-0.1-0.3-0.3-0.3c-0.2,0-0.3,0.1-0.3,0.3v1.3
		C16.2,10.6,16.3,10.7,16.5,10.7z"/>
	<path class="st1" d="M18.1,10.7c0.2,0,0.3-0.1,0.3-0.3V9.1c0-0.2-0.1-0.3-0.3-0.3c-0.2,0-0.3,0.1-0.3,0.3v1.3
		C17.8,10.6,17.9,10.7,18.1,10.7z"/>
	<path class="st1" d="M14.9,13.3c0.2,0,0.3-0.1,0.3-0.3v-1.3c0-0.2-0.1-0.3-0.3-0.3c-0.2,0-0.3,0.1-0.3,0.3V13
		C14.7,13.2,14.8,13.3,14.9,13.3z"/>
	<path class="st1" d="M16.5,13.3c0.2,0,0.3-0.1,0.3-0.3v-1.3c0-0.2-0.1-0.3-0.3-0.3c-0.2,0-0.3,0.1-0.3,0.3V13
		C16.2,13.2,16.3,13.3,16.5,13.3z"/>
	<path class="st1" d="M18.1,13.3c0.2,0,0.3-0.1,0.3-0.3v-1.3c0-0.2-0.1-0.3-0.3-0.3c-0.2,0-0.3,0.1-0.3,0.3V13
		C17.8,13.2,17.9,13.3,18.1,13.3z"/>
</g>
</svg>
