<?xml version="1.0" encoding="utf-8"?>
<!-- Generator: Adobe Illustrator 21.0.0, SVG Export Plug-In . SVG Version: 6.00 Build 0)  -->
<svg version="1.1" id="Layer_1" xmlns="http://www.w3.org/2000/svg" xmlns:xlink="http://www.w3.org/1999/xlink" x="0px" y="0px"
	 viewBox="0 0 20 17.1" style="enable-background:new 0 0 20 17.1;" xml:space="preserve">
<style type="text/css">
	.st0{fill:#FFFFFF;}
</style>
<g>
	<path class="st0" d="M19.7,2.6h-1.9C17.8,1,17.4,0,15.3,0H1.9C0.8,0,0,0.8,0,1.9v13.2c0,1.1,0.9,2,2,2c0.1,0,0.2,0,0.4,0
		c0,0,0.1,0,0.1,0h15.1c1.3,0,2.4-1.1,2.4-2.4V2.9C20,2.7,19.9,2.6,19.7,2.6z M2,16.5c-0.8,0-1.4-0.7-1.4-1.4V1.9
		c0-0.7,0.6-1.3,1.3-1.3h13.5c1.5,0,1.9,0.4,1.9,2h-13C4,2.6,3.9,2.7,3.9,2.9v11.8C3.9,15.7,3,16.5,2,16.5z M19.4,14.7
		c0,1-0.8,1.8-1.8,1.8H3.6c0.5-0.4,0.8-1.1,0.8-1.8V3.2h15L19.4,14.7L19.4,14.7z"/>
	<path class="st0" d="M14.6,5.9h3.3c0.2,0,0.3-0.1,0.3-0.3c0-0.2-0.1-0.3-0.3-0.3h-3.3c-0.2,0-0.3,0.1-0.3,0.3
		C14.3,5.7,14.4,5.9,14.6,5.9z"/>
	<path class="st0" d="M17.6,11.6H7.3c-0.2,0-0.3,0.1-0.3,0.3c0,0.2,0.1,0.3,0.3,0.3h10.3c0.2,0,0.3-0.1,0.3-0.3
		C17.9,11.7,17.8,11.6,17.6,11.6z"/>
	<path class="st0" d="M17.6,13.9H7.3C7.2,13.9,7,14,7,14.2s0.1,0.3,0.3,0.3h10.3c0.2,0,0.3-0.1,0.3-0.3S17.8,13.9,17.6,13.9z"/>
	<path class="st0" d="M17.9,9.3h-3.3c-0.2,0-0.3,0.1-0.3,0.3c0,0.2,0.1,0.3,0.3,0.3h3.3c0.2,0,0.3-0.1,0.3-0.3
		C18.2,9.5,18.1,9.3,17.9,9.3z"/>
	<path class="st0" d="M17.9,7.3h-3.3c-0.2,0-0.3,0.1-0.3,0.3c0,0.2,0.1,0.3,0.3,0.3h3.3c0.2,0,0.3-0.1,0.3-0.3
		C18.2,7.4,18.1,7.3,17.9,7.3z"/>
	<path class="st0" d="M7.3,9.9h5.3c0.2,0,0.3-0.1,0.3-0.3V5.5c0-0.2-0.1-0.3-0.3-0.3H7.3C7.1,5.2,7,5.3,7,5.5v4.1
		C7,9.8,7.1,9.9,7.3,9.9z M7.6,5.8h4.7v3.5H7.6V5.8z"/>
</g>
</svg>
